,x,s,t,T,S,v,V,h,w,I,N,E,G,L,A,J,k,y,R,K,g,j,z,D,c
0,"{'row': 0, 'noise': 0.0, 'temp': 50.0, 'column': 'x'}","{'row': 0, 'noise': -0.027148643508553505, 'temp': 48.642567824572325, 'column': 's'}","{'row': 0, 'noise': 0.01999468356370926, 'temp': 50.99973417818546, 'column': 't'}","{'row': 0, 'noise': 0.2331327348947525, 'temp': 61.656636744737625, 'column': 'T'}","{'row': 0, 'noise': 0.05226922035217285, 'temp': 52.61346101760864, 'column': 'S'}","{'row': 0, 'noise': 0.5160468816757202, 'temp': 75.80234408378601, 'column': 'v'}","{'row': 0, 'noise': 0.23100018501281738, 'temp': 61.55000925064087, 'column': 'V'}","{'row': 0, 'noise': -0.3879660964012146, 'temp': 30.60169517993927, 'column': 'h'}","{'row': 0, 'noise': -0.0018260659417137504, 'temp': 49.90869670291431, 'column': 'w'}","{'row': 0, 'noise': 0.09084102511405945, 'temp': 54.54205125570297, 'column': 'I'}","{'row': 0, 'noise': 0.2986629009246826, 'temp': 64.93314504623413, 'column': 'N'}","{'row': 0, 'noise': 0.018921850249171257, 'temp': 50.94609251245856, 'column': 'E'}","{'row': 0, 'noise': 0.46200037002563477, 'temp': 73.10001850128174, 'column': 'G'}","{'row': 0, 'noise': -0.44031426310539246, 'temp': 27.984286844730377, 'column': 'L'}","{'row': 0, 'noise': 0.06244088336825371, 'temp': 53.122044168412685, 'column': 'A'}","{'row': 0, 'noise': -0.2933143973350525, 'temp': 35.334280133247375, 'column': 'J'}","{'row': 0, 'noise': 0.17276492714881897, 'temp': 58.63824635744095, 'column': 'k'}","{'row': 0, 'noise': 0.36208590865135193, 'temp': 68.1042954325676, 'column': 'y'}","{'row': 0, 'noise': 0.18168270587921143, 'temp': 59.08413529396057, 'column': 'R'}","{'row': 0, 'noise': -0.07017701119184494, 'temp': 46.49114944040775, 'column': 'K'}","{'row': 0, 'noise': 0.20881015062332153, 'temp': 60.44050753116608, 'column': 'g'}","{'row': 0, 'noise': -0.02036980725824833, 'temp': 48.98150963708758, 'column': 'j'}","{'row': 0, 'noise': -0.028293827548623085, 'temp': 48.585308622568846, 'column': 'z'}","{'row': 0, 'noise': -0.12046700716018677, 'temp': 43.97664964199066, 'column': 'D'}","{'row': 0, 'noise': 0.03124144673347473, 'temp': 51.56207233667374, 'column': 'c'}"
1,"{'row': 1, 'noise': -0.28311747312545776, 'temp': 35.84412634372711, 'column': 'x'}","{'row': 1, 'noise': -0.2571173906326294, 'temp': 37.14413046836853, 'column': 's'}","{'row': 1, 'noise': -0.38059917092323303, 'temp': 30.97004145383835, 'column': 't'}","{'row': 1, 'noise': 0.2888597846031189, 'temp': 64.44298923015594, 'column': 'T'}","{'row': 1, 'noise': -0.1484127938747406, 'temp': 42.57936030626297, 'column': 'S'}","{'row': 1, 'noise': -0.27636003494262695, 'temp': 36.18199825286865, 'column': 'v'}","{'row': 1, 'noise': 0.3054591417312622, 'temp': 65.27295708656311, 'column': 'V'}","{'row': 1, 'noise': 0.15121231973171234, 'temp': 57.56061598658562, 'column': 'h'}","{'row': 1, 'noise': 0.5506842732429504, 'temp': 77.53421366214752, 'column': 'w'}","{'row': 1, 'noise': 0.4443228840827942, 'temp': 72.21614420413971, 'column': 'I'}","{'row': 1, 'noise': 0.052125584334135056, 'temp': 52.60627921670675, 'column': 'N'}","{'row': 1, 'noise': 0.2292981594800949, 'temp': 61.464907974004745, 'column': 'E'}","{'row': 1, 'noise': 0.32325807213783264, 'temp': 66.16290360689163, 'column': 'G'}","{'row': 1, 'noise': 0.08661527186632156, 'temp': 54.33076359331608, 'column': 'L'}","{'row': 1, 'noise': -0.08110417425632477, 'temp': 45.94479128718376, 'column': 'A'}","{'row': 1, 'noise': -0.014923755079507828, 'temp': 49.25381224602461, 'column': 'J'}","{'row': 1, 'noise': -0.25726547837257385, 'temp': 37.13672608137131, 'column': 'k'}","{'row': 1, 'noise': -0.21779294312000275, 'temp': 39.11035284399986, 'column': 'y'}","{'row': 1, 'noise': -0.19021224975585938, 'temp': 40.48938751220703, 'column': 'R'}","{'row': 1, 'noise': 0.2189568728208542, 'temp': 60.94784364104271, 'column': 'K'}","{'row': 1, 'noise': -0.1587047427892685, 'temp': 42.064762860536575, 'column': 'g'}","{'row': 1, 'noise': 0.047505367547273636, 'temp': 52.37526837736368, 'column': 'j'}","{'row': 1, 'noise': 0.08012422919273376, 'temp': 54.00621145963669, 'column': 'z'}","{'row': 1, 'noise': -0.009676040150225163, 'temp': 49.51619799248874, 'column': 'D'}","{'row': 1, 'noise': 0.14494362473487854, 'temp': 57.24718123674393, 'column': 'c'}"
2,"{'row': 2, 'noise': -0.07114077359437943, 'temp': 46.44296132028103, 'column': 'x'}","{'row': 2, 'noise': 0.29973968863487244, 'temp': 64.98698443174362, 'column': 's'}","{'row': 2, 'noise': -0.07396715879440308, 'temp': 46.301642060279846, 'column': 't'}","{'row': 2, 'noise': 0.053949497640132904, 'temp': 52.697474882006645, 'column': 'T'}","{'row': 2, 'noise': -0.29066774249076843, 'temp': 35.46661287546158, 'column': 'S'}","{'row': 2, 'noise': 0.28343331813812256, 'temp': 64.17166590690613, 'column': 'v'}","{'row': 2, 'noise': 0.07879456877708435, 'temp': 53.93972843885422, 'column': 'V'}","{'row': 2, 'noise': 0.479263037443161, 'temp': 73.96315187215805, 'column': 'h'}","{'row': 2, 'noise': -0.2968255877494812, 'temp': 35.15872061252594, 'column': 'w'}","{'row': 2, 'noise': 0.009223313070833683, 'temp': 50.461165653541684, 'column': 'I'}","{'row': 2, 'noise': 0.24849164485931396, 'temp': 62.4245822429657, 'column': 'N'}","{'row': 2, 'noise': -0.2538571357727051, 'temp': 37.307143211364746, 'column': 'E'}","{'row': 2, 'noise': 0.43046924471855164, 'temp': 71.52346223592758, 'column': 'G'}","{'row': 2, 'noise': 0.14133764803409576, 'temp': 57.06688240170479, 'column': 'L'}","{'row': 2, 'noise': 0.3024236261844635, 'temp': 65.12118130922318, 'column': 'A'}","{'row': 2, 'noise': 0.3762842118740082, 'temp': 68.81421059370041, 'column': 'J'}","{'row': 2, 'noise': 0.21399721503257751, 'temp': 60.699860751628876, 'column': 'k'}","{'row': 2, 'noise': 0.14731566607952118, 'temp': 57.36578330397606, 'column': 'y'}","{'row': 2, 'noise': 0.39756762981414795, 'temp': 69.8783814907074, 'column': 'R'}","{'row': 2, 'noise': -0.1994341015815735, 'temp': 40.028294920921326, 'column': 'K'}","{'row': 2, 'noise': 0.0381157286465168, 'temp': 51.90578643232584, 'column': 'g'}","{'row': 2, 'noise': 0.08505314588546753, 'temp': 54.25265729427338, 'column': 'j'}","{'row': 2, 'noise': -0.038738928735256195, 'temp': 48.06305356323719, 'column': 'z'}","{'row': 2, 'noise': -0.25914883613586426, 'temp': 37.04255819320679, 'column': 'D'}","{'row': 2, 'noise': 0.19947582483291626, 'temp': 59.97379124164581, 'column': 'c'}"
3,"{'row': 3, 'noise': 0.20362649857997894, 'temp': 60.18132492899895, 'column': 'x'}","{'row': 3, 'noise': 0.2318757027387619, 'temp': 61.593785136938095, 'column': 's'}","{'row': 3, 'noise': -0.1474466323852539, 'temp': 42.627668380737305, 'column': 't'}","{'row': 3, 'noise': 0.04869551211595535, 'temp': 52.43477560579777, 'column': 'T'}","{'row': 3, 'noise': -0.10495233535766602, 'temp': 44.7523832321167, 'column': 'S'}","{'row': 3, 'noise': -0.19013915956020355, 'temp': 40.49304202198982, 'column': 'v'}","{'row': 3, 'noise': -0.3325234055519104, 'temp': 33.37382972240448, 'column': 'V'}","{'row': 3, 'noise': 0.2884245812892914, 'temp': 64.42122906446457, 'column': 'h'}","{'row': 3, 'noise': 0.11547766625881195, 'temp': 55.7738833129406, 'column': 'w'}","{'row': 3, 'noise': 0.03886934369802475, 'temp': 51.94346718490124, 'column': 'I'}","{'row': 3, 'noise': 0.1805209219455719, 'temp': 59.026046097278595, 'column': 'N'}","{'row': 3, 'noise': 0.1474379003047943, 'temp': 57.371895015239716, 'column': 'E'}","{'row': 3, 'noise': 0.015997206792235374, 'temp': 50.79986033961177, 'column': 'G'}","{'row': 3, 'noise': 0.2305493950843811, 'temp': 61.527469754219055, 'column': 'L'}","{'row': 3, 'noise': 0.2739492654800415, 'temp': 63.697463274002075, 'column': 'A'}","{'row': 3, 'noise': 0.5313906073570251, 'temp': 76.56953036785126, 'column': 'J'}","{'row': 3, 'noise': -0.1702408492565155, 'temp': 41.487957537174225, 'column': 'k'}","{'row': 3, 'noise': 0.2208181619644165, 'temp': 61.040908098220825, 'column': 'y'}","{'row': 3, 'noise': 0.262544184923172, 'temp': 63.1272092461586, 'column': 'R'}","{'row': 3, 'noise': 0.27117717266082764, 'temp': 63.55885863304138, 'column': 'K'}","{'row': 3, 'noise': -0.16514648497104645, 'temp': 41.74267575144768, 'column': 'g'}","{'row': 3, 'noise': -0.22903244197368622, 'temp': 38.54837790131569, 'column': 'j'}","{'row': 3, 'noise': 0.25733524560928345, 'temp': 62.86676228046417, 'column': 'z'}","{'row': 3, 'noise': -0.14147736132144928, 'temp': 42.926131933927536, 'column': 'D'}","{'row': 3, 'noise': -0.014396683312952518, 'temp': 49.280165834352374, 'column': 'c'}"
4,"{'row': 4, 'noise': 0.3348257541656494, 'temp': 66.74128770828247, 'column': 'x'}","{'row': 4, 'noise': 0.16664640605449677, 'temp': 58.33232030272484, 'column': 's'}","{'row': 4, 'noise': 0.36421412229537964, 'temp': 68.21070611476898, 'column': 't'}","{'row': 4, 'noise': -0.050907887518405914, 'temp': 47.454605624079704, 'column': 'T'}","{'row': 4, 'noise': -0.0415702760219574, 'temp': 47.92148619890213, 'column': 'S'}","{'row': 4, 'noise': 0.28118547797203064, 'temp': 64.05927389860153, 'column': 'v'}","{'row': 4, 'noise': 0.47456854581832886, 'temp': 73.72842729091644, 'column': 'V'}","{'row': 4, 'noise': -0.04970318824052811, 'temp': 47.514840587973595, 'column': 'h'}","{'row': 4, 'noise': -0.1792379766702652, 'temp': 41.03810116648674, 'column': 'w'}","{'row': 4, 'noise': 0.06163070350885391, 'temp': 53.081535175442696, 'column': 'I'}","{'row': 4, 'noise': -0.11234816908836365, 'temp': 44.38259154558182, 'column': 'N'}","{'row': 4, 'noise': -0.10912089049816132, 'temp': 44.543955475091934, 'column': 'E'}","{'row': 4, 'noise': 0.15758812427520752, 'temp': 57.879406213760376, 'column': 'G'}","{'row': 4, 'noise': 0.09941078722476959, 'temp': 54.97053936123848, 'column': 'L'}","{'row': 4, 'noise': 0.04847352206707001, 'temp': 52.4236761033535, 'column': 'A'}","{'row': 4, 'noise': 0.21362711489200592, 'temp': 60.681355744600296, 'column': 'J'}","{'row': 4, 'noise': -0.10257302224636078, 'temp': 44.87134888768196, 'column': 'k'}","{'row': 4, 'noise': 0.05041338875889778, 'temp': 52.52066943794489, 'column': 'y'}","{'row': 4, 'noise': 0.15071961283683777, 'temp': 57.53598064184189, 'column': 'R'}","{'row': 4, 'noise': -0.1350916475057602, 'temp': 43.24541762471199, 'column': 'K'}","{'row': 4, 'noise': 0.395071804523468, 'temp': 69.7535902261734, 'column': 'g'}","{'row': 4, 'noise': 0.0020950797479599714, 'temp': 50.104753987398, 'column': 'j'}","{'row': 4, 'noise': -0.06067400798201561, 'temp': 46.96629960089922, 'column': 'z'}","{'row': 4, 'noise': -0.1769358217716217, 'temp': 41.153208911418915, 'column': 'D'}","{'row': 4, 'noise': 0.5719453692436218, 'temp': 78.59726846218109, 'column': 'c'}"
5,"{'row': 5, 'noise': 0.356987327337265, 'temp': 67.84936636686325, 'column': 'x'}","{'row': 5, 'noise': 0.03459201380610466, 'temp': 51.72960069030523, 'column': 's'}","{'row': 5, 'noise': 0.07663702964782715, 'temp': 53.83185148239136, 'column': 't'}","{'row': 5, 'noise': 0.09020206332206726, 'temp': 54.51010316610336, 'column': 'T'}","{'row': 5, 'noise': -0.2669360041618347, 'temp': 36.653199791908264, 'column': 'S'}","{'row': 5, 'noise': 0.018887078389525414, 'temp': 50.94435391947627, 'column': 'v'}","{'row': 5, 'noise': 0.04631267860531807, 'temp': 52.3156339302659, 'column': 'V'}","{'row': 5, 'noise': 0.5262086391448975, 'temp': 76.31043195724487, 'column': 'h'}","{'row': 5, 'noise': -0.0014228943036869168, 'temp': 49.928855284815654, 'column': 'w'}","{'row': 5, 'noise': 0.21054008603096008, 'temp': 60.527004301548004, 'column': 'I'}","{'row': 5, 'noise': -0.2323077768087387, 'temp': 38.384611159563065, 'column': 'N'}","{'row': 5, 'noise': 0.5225698947906494, 'temp': 76.12849473953247, 'column': 'E'}","{'row': 5, 'noise': 0.07909580320119858, 'temp': 53.95479016005993, 'column': 'G'}","{'row': 5, 'noise': 0.27809974551200867, 'temp': 63.90498727560043, 'column': 'L'}","{'row': 5, 'noise': -0.01733812689781189, 'temp': 49.133093655109406, 'column': 'A'}","{'row': 5, 'noise': 0.01209306437522173, 'temp': 50.60465321876109, 'column': 'J'}","{'row': 5, 'noise': -0.09548642486333847, 'temp': 45.22567875683308, 'column': 'k'}","{'row': 5, 'noise': -0.07770925760269165, 'temp': 46.11453711986542, 'column': 'y'}","{'row': 5, 'noise': -0.1983889490365982, 'temp': 40.08055254817009, 'column': 'R'}","{'row': 5, 'noise': 0.4147011935710907, 'temp': 70.73505967855453, 'column': 'K'}","{'row': 5, 'noise': 0.3183450996875763, 'temp': 65.91725498437881, 'column': 'g'}","{'row': 5, 'noise': 0.11497890949249268, 'temp': 55.748945474624634, 'column': 'j'}","{'row': 5, 'noise': 0.13120733201503754, 'temp': 56.56036660075188, 'column': 'z'}","{'row': 5, 'noise': -0.22581619024276733, 'temp': 38.70919048786163, 'column': 'D'}","{'row': 5, 'noise': 0.41052913665771484, 'temp': 70.52645683288574, 'column': 'c'}"
6,"{'row': 6, 'noise': 0.1719876527786255, 'temp': 58.599382638931274, 'column': 'x'}","{'row': 6, 'noise': 0.12081445008516312, 'temp': 56.040722504258156, 'column': 's'}","{'row': 6, 'noise': -0.035173509269952774, 'temp': 48.24132453650236, 'column': 't'}","{'row': 6, 'noise': 0.5879591107368469, 'temp': 79.39795553684235, 'column': 'T'}","{'row': 6, 'noise': 0.07177629321813583, 'temp': 53.58881466090679, 'column': 'S'}","{'row': 6, 'noise': 0.06036942079663277, 'temp': 53.01847103983164, 'column': 'v'}","{'row': 6, 'noise': 0.49725109338760376, 'temp': 74.86255466938019, 'column': 'V'}","{'row': 6, 'noise': 0.34701669216156006, 'temp': 67.350834608078, 'column': 'h'}","{'row': 6, 'noise': -0.02945563942193985, 'temp': 48.52721802890301, 'column': 'w'}","{'row': 6, 'noise': 0.22477714717388153, 'temp': 61.23885735869408, 'column': 'I'}","{'row': 6, 'noise': -0.20386020839214325, 'temp': 39.80698958039284, 'column': 'N'}","{'row': 6, 'noise': -0.12953239679336548, 'temp': 43.523380160331726, 'column': 'E'}","{'row': 6, 'noise': 0.1996438354253769, 'temp': 59.982191771268845, 'column': 'G'}","{'row': 6, 'noise': -0.2518655061721802, 'temp': 37.40672469139099, 'column': 'L'}","{'row': 6, 'noise': 0.5255679488182068, 'temp': 76.27839744091034, 'column': 'A'}","{'row': 6, 'noise': -0.35663899779319763, 'temp': 32.16805011034012, 'column': 'J'}","{'row': 6, 'noise': 0.09868444502353668, 'temp': 54.934222251176834, 'column': 'k'}","{'row': 6, 'noise': -0.41397953033447266, 'temp': 29.301023483276367, 'column': 'y'}","{'row': 6, 'noise': 0.37125110626220703, 'temp': 68.56255531311035, 'column': 'R'}","{'row': 6, 'noise': 0.04033380374312401, 'temp': 52.0166901871562, 'column': 'K'}","{'row': 6, 'noise': 0.35537248849868774, 'temp': 67.76862442493439, 'column': 'g'}","{'row': 6, 'noise': 0.1871054321527481, 'temp': 59.355271607637405, 'column': 'j'}","{'row': 6, 'noise': -0.2831122875213623, 'temp': 35.844385623931885, 'column': 'z'}","{'row': 6, 'noise': 0.44542014598846436, 'temp': 72.27100729942322, 'column': 'D'}","{'row': 6, 'noise': 0.0032183171715587378, 'temp': 50.16091585857794, 'column': 'c'}"
7,"{'row': 7, 'noise': 0.008903698064386845, 'temp': 50.44518490321934, 'column': 'x'}","{'row': 7, 'noise': 0.08216926455497742, 'temp': 54.10846322774887, 'column': 's'}","{'row': 7, 'noise': 0.6179803609848022, 'temp': 80.89901804924011, 'column': 't'}","{'row': 7, 'noise': 0.5961804986000061, 'temp': 79.8090249300003, 'column': 'T'}","{'row': 7, 'noise': 0.12144750356674194, 'temp': 56.0723751783371, 'column': 'S'}","{'row': 7, 'noise': 0.5006431937217712, 'temp': 75.03215968608856, 'column': 'v'}","{'row': 7, 'noise': 0.17102299630641937, 'temp': 58.55114981532097, 'column': 'V'}","{'row': 7, 'noise': 0.3450922667980194, 'temp': 67.25461333990097, 'column': 'h'}","{'row': 7, 'noise': 0.14231719076633453, 'temp': 57.11585953831673, 'column': 'w'}","{'row': 7, 'noise': -0.34451034665107727, 'temp': 32.77448266744614, 'column': 'I'}","{'row': 7, 'noise': -0.41768956184387207, 'temp': 29.115521907806396, 'column': 'N'}","{'row': 7, 'noise': -0.49361810088157654, 'temp': 25.319094955921173, 'column': 'E'}","{'row': 7, 'noise': -0.08457553386688232, 'temp': 45.771223306655884, 'column': 'G'}","{'row': 7, 'noise': 0.48734021186828613, 'temp': 74.3670105934143, 'column': 'L'}","{'row': 7, 'noise': 0.376540869474411, 'temp': 68.82704347372055, 'column': 'A'}","{'row': 7, 'noise': 0.0018245599931105971, 'temp': 50.09122799965553, 'column': 'J'}","{'row': 7, 'noise': -0.5220575332641602, 'temp': 23.897123336791992, 'column': 'k'}","{'row': 7, 'noise': 0.272622674703598, 'temp': 63.6311337351799, 'column': 'y'}","{'row': 7, 'noise': 0.10327504575252533, 'temp': 55.16375228762627, 'column': 'R'}","{'row': 7, 'noise': -0.0020395887549966574, 'temp': 49.89802056225017, 'column': 'K'}","{'row': 7, 'noise': 0.2629578709602356, 'temp': 63.14789354801178, 'column': 'g'}","{'row': 7, 'noise': 0.0021866182796657085, 'temp': 50.109330913983285, 'column': 'j'}","{'row': 7, 'noise': -0.3895600438117981, 'temp': 30.521997809410095, 'column': 'z'}","{'row': 7, 'noise': 0.09479763358831406, 'temp': 54.7398816794157, 'column': 'D'}","{'row': 7, 'noise': 0.23503538966178894, 'temp': 61.75176948308945, 'column': 'c'}"
8,"{'row': 8, 'noise': -0.025553688406944275, 'temp': 48.722315579652786, 'column': 'x'}","{'row': 8, 'noise': 0.051972053945064545, 'temp': 52.59860269725323, 'column': 's'}","{'row': 8, 'noise': -0.03365008533000946, 'temp': 48.31749573349953, 'column': 't'}","{'row': 8, 'noise': 0.06348633766174316, 'temp': 53.17431688308716, 'column': 'T'}","{'row': 8, 'noise': 0.32633069157600403, 'temp': 66.3165345788002, 'column': 'S'}","{'row': 8, 'noise': 0.048461608588695526, 'temp': 52.423080429434776, 'column': 'v'}","{'row': 8, 'noise': 0.23779161274433136, 'temp': 61.88958063721657, 'column': 'V'}","{'row': 8, 'noise': 0.3952752351760864, 'temp': 69.76376175880432, 'column': 'h'}","{'row': 8, 'noise': -0.25955766439437866, 'temp': 37.02211678028107, 'column': 'w'}","{'row': 8, 'noise': 0.16765426099300385, 'temp': 58.38271304965019, 'column': 'I'}","{'row': 8, 'noise': 0.10734498500823975, 'temp': 55.36724925041199, 'column': 'N'}","{'row': 8, 'noise': 0.22442005574703217, 'temp': 61.22100278735161, 'column': 'E'}","{'row': 8, 'noise': 0.45805907249450684, 'temp': 72.90295362472534, 'column': 'G'}","{'row': 8, 'noise': -0.24687688052654266, 'temp': 37.65615597367287, 'column': 'L'}","{'row': 8, 'noise': -0.033270929008722305, 'temp': 48.336453549563885, 'column': 'A'}","{'row': 8, 'noise': -0.04530278593301773, 'temp': 47.73486070334911, 'column': 'J'}","{'row': 8, 'noise': -0.25656452775001526, 'temp': 37.17177361249924, 'column': 'k'}","{'row': 8, 'noise': 0.2820923328399658, 'temp': 64.10461664199829, 'column': 'y'}","{'row': 8, 'noise': -0.3124401867389679, 'temp': 34.377990663051605, 'column': 'R'}","{'row': 8, 'noise': -0.0026499899104237556, 'temp': 49.86750050447881, 'column': 'K'}","{'row': 8, 'noise': -0.5136893391609192, 'temp': 24.31553304195404, 'column': 'g'}","{'row': 8, 'noise': -0.18387238681316376, 'temp': 40.80638065934181, 'column': 'j'}","{'row': 8, 'noise': 0.016842208802700043, 'temp': 50.842110440135, 'column': 'z'}","{'row': 8, 'noise': -0.0928255170583725, 'temp': 45.358724147081375, 'column': 'D'}","{'row': 8, 'noise': -0.3336884379386902, 'temp': 33.31557810306549, 'column': 'c'}"
9,"{'row': 9, 'noise': 0.3543417155742645, 'temp': 67.71708577871323, 'column': 'x'}","{'row': 9, 'noise': -0.1587640643119812, 'temp': 42.06179678440094, 'column': 's'}","{'row': 9, 'noise': 0.012718705460429192, 'temp': 50.63593527302146, 'column': 't'}","{'row': 9, 'noise': -0.05480802059173584, 'temp': 47.25959897041321, 'column': 'T'}","{'row': 9, 'noise': -0.3236948549747467, 'temp': 33.815257251262665, 'column': 'S'}","{'row': 9, 'noise': 0.0866694450378418, 'temp': 54.33347225189209, 'column': 'v'}","{'row': 9, 'noise': -0.21638168394565582, 'temp': 39.18091580271721, 'column': 'V'}","{'row': 9, 'noise': 0.1635114699602127, 'temp': 58.175573498010635, 'column': 'h'}","{'row': 9, 'noise': -0.22651629149913788, 'temp': 38.674185425043106, 'column': 'w'}","{'row': 9, 'noise': 0.3713579475879669, 'temp': 68.56789737939835, 'column': 'I'}","{'row': 9, 'noise': 0.013948814012110233, 'temp': 50.69744070060551, 'column': 'N'}","{'row': 9, 'noise': 0.24734781682491302, 'temp': 62.36739084124565, 'column': 'E'}","{'row': 9, 'noise': -0.321388840675354, 'temp': 33.9305579662323, 'column': 'G'}","{'row': 9, 'noise': 0.050684601068496704, 'temp': 52.534230053424835, 'column': 'L'}","{'row': 9, 'noise': -0.2640739381313324, 'temp': 36.79630309343338, 'column': 'A'}","{'row': 9, 'noise': -0.18927805125713348, 'temp': 40.536097437143326, 'column': 'J'}","{'row': 9, 'noise': 0.09583669155836105, 'temp': 54.79183457791805, 'column': 'k'}","{'row': 9, 'noise': -0.2116083800792694, 'temp': 39.41958099603653, 'column': 'y'}","{'row': 9, 'noise': 0.11149020493030548, 'temp': 55.574510246515274, 'column': 'R'}","{'row': 9, 'noise': 0.29209011793136597, 'temp': 64.6045058965683, 'column': 'K'}","{'row': 9, 'noise': 0.022023696452379227, 'temp': 51.10118482261896, 'column': 'g'}","{'row': 9, 'noise': -0.07720028609037399, 'temp': 46.1399856954813, 'column': 'j'}","{'row': 9, 'noise': 0.35774850845336914, 'temp': 67.88742542266846, 'column': 'z'}","{'row': 9, 'noise': -0.4073922336101532, 'temp': 29.63038831949234, 'column': 'D'}","{'row': 9, 'noise': -0.3494855463504791, 'temp': 32.525722682476044, 'column': 'c'}"
10,"{'row': 10, 'noise': 0.3471222519874573, 'temp': 67.35611259937286, 'column': 'x'}","{'row': 10, 'noise': 0.07532355934381485, 'temp': 53.76617796719074, 'column': 's'}","{'row': 10, 'noise': -0.3329133987426758, 'temp': 33.35433006286621, 'column': 't'}","{'row': 10, 'noise': -0.34280556440353394, 'temp': 32.8597217798233, 'column': 'T'}","{'row': 10, 'noise': 0.17456480860710144, 'temp': 58.72824043035507, 'column': 'S'}","{'row': 10, 'noise': 0.09409629553556442, 'temp': 54.70481477677822, 'column': 'v'}","{'row': 10, 'noise': 0.1804051399230957, 'temp': 59.020256996154785, 'column': 'V'}","{'row': 10, 'noise': -0.01336544007062912, 'temp': 49.331727996468544, 'column': 'h'}","{'row': 10, 'noise': -0.0788455605506897, 'temp': 46.057721972465515, 'column': 'w'}","{'row': 10, 'noise': -0.09870028495788574, 'temp': 45.06498575210571, 'column': 'I'}","{'row': 10, 'noise': -0.299460232257843, 'temp': 35.02698838710785, 'column': 'N'}","{'row': 10, 'noise': 0.07580747455358505, 'temp': 53.79037372767925, 'column': 'E'}","{'row': 10, 'noise': 0.02648988738656044, 'temp': 51.32449436932802, 'column': 'G'}","{'row': 10, 'noise': -0.4181969463825226, 'temp': 29.09015268087387, 'column': 'L'}","{'row': 10, 'noise': 0.36348092555999756, 'temp': 68.17404627799988, 'column': 'A'}","{'row': 10, 'noise': 0.39436888694763184, 'temp': 69.71844434738159, 'column': 'J'}","{'row': 10, 'noise': -0.4385473430156708, 'temp': 28.07263284921646, 'column': 'k'}","{'row': 10, 'noise': 0.2630590796470642, 'temp': 63.15295398235321, 'column': 'y'}","{'row': 10, 'noise': 0.13208706676959991, 'temp': 56.604353338479996, 'column': 'R'}","{'row': 10, 'noise': -0.11904116719961166, 'temp': 44.04794164001942, 'column': 'K'}","{'row': 10, 'noise': 0.005552583374083042, 'temp': 50.27762916870415, 'column': 'g'}","{'row': 10, 'noise': 0.21919384598731995, 'temp': 60.959692299366, 'column': 'j'}","{'row': 10, 'noise': 0.39627498388290405, 'temp': 69.8137491941452, 'column': 'z'}","{'row': 10, 'noise': 0.07081558555364609, 'temp': 53.540779277682304, 'column': 'D'}","{'row': 10, 'noise': -0.2694317698478699, 'temp': 36.528411507606506, 'column': 'c'}"
11,"{'row': 11, 'noise': -0.012949157506227493, 'temp': 49.352542124688625, 'column': 'x'}","{'row': 11, 'noise': 0.21765299141407013, 'temp': 60.88264957070351, 'column': 's'}","{'row': 11, 'noise': 0.4384552240371704, 'temp': 71.92276120185852, 'column': 't'}","{'row': 11, 'noise': -0.07166329026222229, 'temp': 46.416835486888885, 'column': 'T'}","{'row': 11, 'noise': 0.22646363079547882, 'temp': 61.32318153977394, 'column': 'S'}","{'row': 11, 'noise': -0.02727254293859005, 'temp': 48.6363728530705, 'column': 'v'}","{'row': 11, 'noise': -0.2725943624973297, 'temp': 36.370281875133514, 'column': 'V'}","{'row': 11, 'noise': -0.21611574292182922, 'temp': 39.19421285390854, 'column': 'h'}","{'row': 11, 'noise': 0.13771110773086548, 'temp': 56.885555386543274, 'column': 'w'}","{'row': 11, 'noise': -0.23021729290485382, 'temp': 38.48913535475731, 'column': 'I'}","{'row': 11, 'noise': 0.43866318464279175, 'temp': 71.93315923213959, 'column': 'N'}","{'row': 11, 'noise': -0.15212972462177277, 'temp': 42.39351376891136, 'column': 'E'}","{'row': 11, 'noise': -0.03328206017613411, 'temp': 48.335896991193295, 'column': 'G'}","{'row': 11, 'noise': -0.34427371621131897, 'temp': 32.78631418943405, 'column': 'L'}","{'row': 11, 'noise': 0.0322350449860096, 'temp': 51.61175224930048, 'column': 'A'}","{'row': 11, 'noise': -0.0522703155875206, 'temp': 47.38648422062397, 'column': 'J'}","{'row': 11, 'noise': 0.254856675863266, 'temp': 62.7428337931633, 'column': 'k'}","{'row': 11, 'noise': -0.03616531565785408, 'temp': 48.191734217107296, 'column': 'y'}","{'row': 11, 'noise': 0.09675468504428864, 'temp': 54.83773425221443, 'column': 'R'}","{'row': 11, 'noise': -0.031188849359750748, 'temp': 48.44055753201246, 'column': 'K'}","{'row': 11, 'noise': 0.12560158967971802, 'temp': 56.2800794839859, 'column': 'g'}","{'row': 11, 'noise': -0.055758632719516754, 'temp': 47.21206836402416, 'column': 'j'}","{'row': 11, 'noise': -0.26306554675102234, 'temp': 36.84672266244888, 'column': 'z'}","{'row': 11, 'noise': -0.23349863290786743, 'temp': 38.32506835460663, 'column': 'D'}","{'row': 11, 'noise': -0.017935797572135925, 'temp': 49.103210121393204, 'column': 'c'}"
12,"{'row': 12, 'noise': -0.46021968126296997, 'temp': 26.9890159368515, 'column': 'x'}","{'row': 12, 'noise': 0.6217756867408752, 'temp': 81.08878433704376, 'column': 's'}","{'row': 12, 'noise': 0.061179812997579575, 'temp': 53.05899064987898, 'column': 't'}","{'row': 12, 'noise': -0.27980536222457886, 'temp': 36.00973188877106, 'column': 'T'}","{'row': 12, 'noise': -0.07034600526094437, 'temp': 46.48269973695278, 'column': 'S'}","{'row': 12, 'noise': -0.349485844373703, 'temp': 32.52570778131485, 'column': 'v'}","{'row': 12, 'noise': 0.2658659815788269, 'temp': 63.293299078941345, 'column': 'V'}","{'row': 12, 'noise': -0.05710034817457199, 'temp': 47.1449825912714, 'column': 'h'}","{'row': 12, 'noise': -0.3475254774093628, 'temp': 32.62372612953186, 'column': 'w'}","{'row': 12, 'noise': -0.11882447451353073, 'temp': 44.05877627432346, 'column': 'I'}","{'row': 12, 'noise': 0.05460337549448013, 'temp': 52.73016877472401, 'column': 'N'}","{'row': 12, 'noise': -0.06208343058824539, 'temp': 46.89582847058773, 'column': 'E'}","{'row': 12, 'noise': 0.2036544382572174, 'temp': 60.18272191286087, 'column': 'G'}","{'row': 12, 'noise': 0.12373916059732437, 'temp': 56.18695802986622, 'column': 'L'}","{'row': 12, 'noise': 0.25833186507225037, 'temp': 62.91659325361252, 'column': 'A'}","{'row': 12, 'noise': -0.463613361120224, 'temp': 26.8193319439888, 'column': 'J'}","{'row': 12, 'noise': 0.230083629488945, 'temp': 61.50418147444725, 'column': 'k'}","{'row': 12, 'noise': -0.41534656286239624, 'temp': 29.232671856880188, 'column': 'y'}","{'row': 12, 'noise': -0.020613834261894226, 'temp': 48.96930828690529, 'column': 'R'}","{'row': 12, 'noise': -0.01823125220835209, 'temp': 49.088437389582396, 'column': 'K'}","{'row': 12, 'noise': -0.4077199399471283, 'temp': 29.614003002643585, 'column': 'g'}","{'row': 12, 'noise': -0.07133594155311584, 'temp': 46.43320292234421, 'column': 'j'}","{'row': 12, 'noise': 0.17133373022079468, 'temp': 58.566686511039734, 'column': 'z'}","{'row': 12, 'noise': 0.05561250448226929, 'temp': 52.780625224113464, 'column': 'D'}","{'row': 12, 'noise': 0.1506657749414444, 'temp': 57.53328874707222, 'column': 'c'}"
13,"{'row': 13, 'noise': -0.3273674249649048, 'temp': 33.63162875175476, 'column': 'x'}","{'row': 13, 'noise': -0.050188735127449036, 'temp': 47.49056324362755, 'column': 's'}","{'row': 13, 'noise': 0.23861034214496613, 'temp': 61.930517107248306, 'column': 't'}","{'row': 13, 'noise': 0.2267991453409195, 'temp': 61.339957267045975, 'column': 'T'}","{'row': 13, 'noise': 0.34536054730415344, 'temp': 67.26802736520767, 'column': 'S'}","{'row': 13, 'noise': 0.29290127754211426, 'temp': 64.64506387710571, 'column': 'v'}","{'row': 13, 'noise': -0.1361420750617981, 'temp': 43.192896246910095, 'column': 'V'}","{'row': 13, 'noise': -0.16284212470054626, 'temp': 41.85789376497269, 'column': 'h'}","{'row': 13, 'noise': 0.040318991988897324, 'temp': 52.015949599444866, 'column': 'w'}","{'row': 13, 'noise': -0.07231568545103073, 'temp': 46.38421572744846, 'column': 'I'}","{'row': 13, 'noise': -0.35485100746154785, 'temp': 32.25744962692261, 'column': 'N'}","{'row': 13, 'noise': 0.3900581896305084, 'temp': 69.50290948152542, 'column': 'E'}","{'row': 13, 'noise': 0.03862479701638222, 'temp': 51.93123985081911, 'column': 'G'}","{'row': 13, 'noise': 0.1651814877986908, 'temp': 58.25907438993454, 'column': 'L'}","{'row': 13, 'noise': -0.2805542051792145, 'temp': 35.972289741039276, 'column': 'A'}","{'row': 13, 'noise': -0.09336450695991516, 'temp': 45.33177465200424, 'column': 'J'}","{'row': 13, 'noise': -0.14975550770759583, 'temp': 42.51222461462021, 'column': 'k'}","{'row': 13, 'noise': -0.06323819607496262, 'temp': 46.83809019625187, 'column': 'y'}","{'row': 13, 'noise': -0.2719089090824127, 'temp': 36.404554545879364, 'column': 'R'}","{'row': 13, 'noise': 0.28176093101501465, 'temp': 64.08804655075073, 'column': 'K'}","{'row': 13, 'noise': 0.12065291404724121, 'temp': 56.03264570236206, 'column': 'g'}","{'row': 13, 'noise': 0.4439394176006317, 'temp': 72.19697088003159, 'column': 'j'}","{'row': 13, 'noise': -0.39776691794395447, 'temp': 30.111654102802277, 'column': 'z'}","{'row': 13, 'noise': 0.10960707068443298, 'temp': 55.48035353422165, 'column': 'D'}","{'row': 13, 'noise': 0.08109594881534576, 'temp': 54.05479744076729, 'column': 'c'}"
14,"{'row': 14, 'noise': -0.32179996371269226, 'temp': 33.91000181436539, 'column': 'x'}","{'row': 14, 'noise': 0.35188043117523193, 'temp': 67.5940215587616, 'column': 's'}","{'row': 14, 'noise': 0.16433954238891602, 'temp': 58.2169771194458, 'column': 't'}","{'row': 14, 'noise': 0.03971588611602783, 'temp': 51.98579430580139, 'column': 'T'}","{'row': 14, 'noise': 0.3485892713069916, 'temp': 67.42946356534958, 'column': 'S'}","{'row': 14, 'noise': -0.036379702389240265, 'temp': 48.18101488053799, 'column': 'v'}","{'row': 14, 'noise': 0.2614862620830536, 'temp': 63.07431310415268, 'column': 'V'}","{'row': 14, 'noise': 0.3257855772972107, 'temp': 66.28927886486053, 'column': 'h'}","{'row': 14, 'noise': 0.11062409728765488, 'temp': 55.531204864382744, 'column': 'w'}","{'row': 14, 'noise': 0.4581551253795624, 'temp': 72.90775626897812, 'column': 'I'}","{'row': 14, 'noise': 0.5039510726928711, 'temp': 75.19755363464355, 'column': 'N'}","{'row': 14, 'noise': 0.062252145260572433, 'temp': 53.11260726302862, 'column': 'E'}","{'row': 14, 'noise': -0.0936555415391922, 'temp': 45.31722292304039, 'column': 'G'}","{'row': 14, 'noise': 0.3687359690666199, 'temp': 68.436798453331, 'column': 'L'}","{'row': 14, 'noise': 0.40118956565856934, 'temp': 70.05947828292847, 'column': 'A'}","{'row': 14, 'noise': -0.4038562476634979, 'temp': 29.807187616825104, 'column': 'J'}","{'row': 14, 'noise': 0.04954943805932999, 'temp': 52.4774719029665, 'column': 'k'}","{'row': 14, 'noise': 0.06708499044179916, 'temp': 53.35424952208996, 'column': 'y'}","{'row': 14, 'noise': -0.36458805203437805, 'temp': 31.770597398281097, 'column': 'R'}","{'row': 14, 'noise': -0.2574787437915802, 'temp': 37.12606281042099, 'column': 'K'}","{'row': 14, 'noise': 0.019869105890393257, 'temp': 50.99345529451966, 'column': 'g'}","{'row': 14, 'noise': 0.24364715814590454, 'temp': 62.18235790729523, 'column': 'j'}","{'row': 14, 'noise': -0.36519819498062134, 'temp': 31.740090250968933, 'column': 'z'}","{'row': 14, 'noise': 0.2433984875679016, 'temp': 62.16992437839508, 'column': 'D'}","{'row': 14, 'noise': -0.2828569710254669, 'temp': 35.857151448726654, 'column': 'c'}"
15,"{'row': 15, 'noise': 0.09540358185768127, 'temp': 54.770179092884064, 'column': 'x'}","{'row': 15, 'noise': -0.2862170338630676, 'temp': 35.68914830684662, 'column': 's'}","{'row': 15, 'noise': 0.1586734652519226, 'temp': 57.93367326259613, 'column': 't'}","{'row': 15, 'noise': 0.22171229124069214, 'temp': 61.08561456203461, 'column': 'T'}","{'row': 15, 'noise': -0.11774373799562454, 'temp': 44.11281310021877, 'column': 'S'}","{'row': 15, 'noise': 0.020089678466320038, 'temp': 51.004483923316, 'column': 'v'}","{'row': 15, 'noise': -0.17909479141235352, 'temp': 41.045260429382324, 'column': 'V'}","{'row': 15, 'noise': -0.07090262323617935, 'temp': 46.45486883819103, 'column': 'h'}","{'row': 15, 'noise': 0.26797178387641907, 'temp': 63.39858919382095, 'column': 'w'}","{'row': 15, 'noise': 0.44290706515312195, 'temp': 72.1453532576561, 'column': 'I'}","{'row': 15, 'noise': 0.26659002900123596, 'temp': 63.3295014500618, 'column': 'N'}","{'row': 15, 'noise': 0.3947780132293701, 'temp': 69.7389006614685, 'column': 'E'}","{'row': 15, 'noise': 0.3428885340690613, 'temp': 67.14442670345306, 'column': 'G'}","{'row': 15, 'noise': -0.05078310891985893, 'temp': 47.46084455400705, 'column': 'L'}","{'row': 15, 'noise': -0.12180384993553162, 'temp': 43.90980750322342, 'column': 'A'}","{'row': 15, 'noise': -0.1156119853258133, 'temp': 44.219400733709335, 'column': 'J'}","{'row': 15, 'noise': -0.1334501951932907, 'temp': 43.327490240335464, 'column': 'k'}","{'row': 15, 'noise': 0.19736488163471222, 'temp': 59.86824408173561, 'column': 'y'}","{'row': 15, 'noise': 0.1016794741153717, 'temp': 55.083973705768585, 'column': 'R'}","{'row': 15, 'noise': 0.5197314023971558, 'temp': 75.98657011985779, 'column': 'K'}","{'row': 15, 'noise': -0.35059359669685364, 'temp': 32.47032016515732, 'column': 'g'}","{'row': 15, 'noise': 0.23703831434249878, 'temp': 61.85191571712494, 'column': 'j'}","{'row': 15, 'noise': -0.27225038409233093, 'temp': 36.38748079538345, 'column': 'z'}","{'row': 15, 'noise': -0.013521882705390453, 'temp': 49.32390586473048, 'column': 'D'}","{'row': 15, 'noise': -0.15308761596679688, 'temp': 42.345619201660156, 'column': 'c'}"
16,"{'row': 16, 'noise': 0.12530969083309174, 'temp': 56.26548454165459, 'column': 'x'}","{'row': 16, 'noise': -0.048885248601436615, 'temp': 47.55573756992817, 'column': 's'}","{'row': 16, 'noise': -0.3510824143886566, 'temp': 32.44587928056717, 'column': 't'}","{'row': 16, 'noise': 0.05619904398918152, 'temp': 52.809952199459076, 'column': 'T'}","{'row': 16, 'noise': 0.4237779378890991, 'temp': 71.18889689445496, 'column': 'S'}","{'row': 16, 'noise': 0.3087998032569885, 'temp': 65.43999016284943, 'column': 'v'}","{'row': 16, 'noise': 0.06083722785115242, 'temp': 53.04186139255762, 'column': 'V'}","{'row': 16, 'noise': -0.0729011818766594, 'temp': 46.35494090616703, 'column': 'h'}","{'row': 16, 'noise': -0.24009791016578674, 'temp': 37.99510449171066, 'column': 'w'}","{'row': 16, 'noise': -0.0682503879070282, 'temp': 46.58748060464859, 'column': 'I'}","{'row': 16, 'noise': -0.35578644275665283, 'temp': 32.21067786216736, 'column': 'N'}","{'row': 16, 'noise': 0.48706498742103577, 'temp': 74.35324937105179, 'column': 'E'}","{'row': 16, 'noise': -0.1024065911769867, 'temp': 44.879670441150665, 'column': 'G'}","{'row': 16, 'noise': -0.2754143476486206, 'temp': 36.22928261756897, 'column': 'L'}","{'row': 16, 'noise': 0.027745967730879784, 'temp': 51.38729838654399, 'column': 'A'}","{'row': 16, 'noise': 0.7340543270111084, 'temp': 86.70271635055542, 'column': 'J'}","{'row': 16, 'noise': -0.19468221068382263, 'temp': 40.26588946580887, 'column': 'k'}","{'row': 16, 'noise': -0.3439613878726959, 'temp': 32.801930606365204, 'column': 'y'}","{'row': 16, 'noise': -0.08954136818647385, 'temp': 45.52293159067631, 'column': 'R'}","{'row': 16, 'noise': -0.04520595073699951, 'temp': 47.739702463150024, 'column': 'K'}","{'row': 16, 'noise': 0.0908641368150711, 'temp': 54.543206840753555, 'column': 'g'}","{'row': 16, 'noise': -0.1946847140789032, 'temp': 40.26576429605484, 'column': 'j'}","{'row': 16, 'noise': 0.3351341784000397, 'temp': 66.75670892000198, 'column': 'z'}","{'row': 16, 'noise': -0.16296187043190002, 'temp': 41.851906478405, 'column': 'D'}","{'row': 16, 'noise': -0.019598018378019333, 'temp': 49.02009908109903, 'column': 'c'}"
17,"{'row': 17, 'noise': 0.09489355236291885, 'temp': 54.74467761814594, 'column': 'x'}","{'row': 17, 'noise': 0.40235742926597595, 'temp': 70.1178714632988, 'column': 's'}","{'row': 17, 'noise': 0.04913995414972305, 'temp': 52.45699770748615, 'column': 't'}","{'row': 17, 'noise': 0.1470179408788681, 'temp': 57.350897043943405, 'column': 'T'}","{'row': 17, 'noise': 0.337230920791626, 'temp': 66.8615460395813, 'column': 'S'}","{'row': 17, 'noise': 0.054490361362695694, 'temp': 52.724518068134785, 'column': 'v'}","{'row': 17, 'noise': 0.0992625430226326, 'temp': 54.96312715113163, 'column': 'V'}","{'row': 17, 'noise': 0.06306636333465576, 'temp': 53.15331816673279, 'column': 'h'}","{'row': 17, 'noise': -0.24475066363811493, 'temp': 37.76246681809425, 'column': 'w'}","{'row': 17, 'noise': -0.1251184046268463, 'temp': 43.744079768657684, 'column': 'I'}","{'row': 17, 'noise': 0.09343936294317245, 'temp': 54.67196814715862, 'column': 'N'}","{'row': 17, 'noise': 0.03388700261712074, 'temp': 51.69435013085604, 'column': 'E'}","{'row': 17, 'noise': 0.29315000772476196, 'temp': 64.6575003862381, 'column': 'G'}","{'row': 17, 'noise': -0.0861247181892395, 'temp': 45.693764090538025, 'column': 'L'}","{'row': 17, 'noise': -0.26694777607917786, 'temp': 36.65261119604111, 'column': 'A'}","{'row': 17, 'noise': -0.4636719524860382, 'temp': 26.81640237569809, 'column': 'J'}","{'row': 17, 'noise': 0.0824800357222557, 'temp': 54.124001786112785, 'column': 'k'}","{'row': 17, 'noise': -0.4775075614452362, 'temp': 26.12462192773819, 'column': 'y'}","{'row': 17, 'noise': -0.17237086594104767, 'temp': 41.38145670294762, 'column': 'R'}","{'row': 17, 'noise': -0.20425131916999817, 'temp': 39.78743404150009, 'column': 'K'}","{'row': 17, 'noise': -0.3254847228527069, 'temp': 33.725763857364655, 'column': 'g'}","{'row': 17, 'noise': -0.09657341986894608, 'temp': 45.171329006552696, 'column': 'j'}","{'row': 17, 'noise': -0.42189544439315796, 'temp': 28.905227780342102, 'column': 'z'}","{'row': 17, 'noise': -0.09525565803050995, 'temp': 45.2372170984745, 'column': 'D'}","{'row': 17, 'noise': -0.004895242862403393, 'temp': 49.75523785687983, 'column': 'c'}"
18,"{'row': 18, 'noise': 0.2763376832008362, 'temp': 63.81688416004181, 'column': 'x'}","{'row': 18, 'noise': -0.06702320277690887, 'temp': 46.648839861154556, 'column': 's'}","{'row': 18, 'noise': -0.3175281286239624, 'temp': 34.12359356880188, 'column': 't'}","{'row': 18, 'noise': 0.07610197365283966, 'temp': 53.80509868264198, 'column': 'T'}","{'row': 18, 'noise': 0.09157492965459824, 'temp': 54.57874648272991, 'column': 'S'}","{'row': 18, 'noise': 0.22398428618907928, 'temp': 61.199214309453964, 'column': 'v'}","{'row': 18, 'noise': -0.6069512963294983, 'temp': 19.652435183525085, 'column': 'V'}","{'row': 18, 'noise': -0.32403358817100525, 'temp': 33.79832059144974, 'column': 'h'}","{'row': 18, 'noise': -0.21168820559978485, 'temp': 39.41558972001076, 'column': 'w'}","{'row': 18, 'noise': 0.45832565426826477, 'temp': 72.91628271341324, 'column': 'I'}","{'row': 18, 'noise': -0.4046492278575897, 'temp': 29.767538607120514, 'column': 'N'}","{'row': 18, 'noise': -0.04074057564139366, 'temp': 47.96297121793032, 'column': 'E'}","{'row': 18, 'noise': 0.06618167459964752, 'temp': 53.309083729982376, 'column': 'G'}","{'row': 18, 'noise': -0.15715225040912628, 'temp': 42.142387479543686, 'column': 'L'}","{'row': 18, 'noise': 0.32702240347862244, 'temp': 66.35112017393112, 'column': 'A'}","{'row': 18, 'noise': 0.468926340341568, 'temp': 73.4463170170784, 'column': 'J'}","{'row': 18, 'noise': -0.022634029388427734, 'temp': 48.86829853057861, 'column': 'k'}","{'row': 18, 'noise': 0.47125014662742615, 'temp': 73.56250733137131, 'column': 'y'}","{'row': 18, 'noise': 0.24450428783893585, 'temp': 62.22521439194679, 'column': 'R'}","{'row': 18, 'noise': -0.13296224176883698, 'temp': 43.35188791155815, 'column': 'K'}","{'row': 18, 'noise': -0.199514240026474, 'temp': 40.0242879986763, 'column': 'g'}","{'row': 18, 'noise': -0.3628680408000946, 'temp': 31.85659795999527, 'column': 'j'}","{'row': 18, 'noise': 0.41975679993629456, 'temp': 70.98783999681473, 'column': 'z'}","{'row': 18, 'noise': -0.02206033281981945, 'temp': 48.89698335900903, 'column': 'D'}","{'row': 18, 'noise': -0.15822505950927734, 'temp': 42.08874702453613, 'column': 'c'}"
19,"{'row': 19, 'noise': 0.0013095824979245663, 'temp': 50.06547912489623, 'column': 'x'}","{'row': 19, 'noise': 0.27164795994758606, 'temp': 63.5823979973793, 'column': 's'}","{'row': 19, 'noise': 0.03334486111998558, 'temp': 51.66724305599928, 'column': 't'}","{'row': 19, 'noise': -0.052826616913080215, 'temp': 47.35866915434599, 'column': 'T'}","{'row': 19, 'noise': 0.056786686182022095, 'temp': 52.839334309101105, 'column': 'S'}","{'row': 19, 'noise': -0.21927855908870697, 'temp': 39.03607204556465, 'column': 'v'}","{'row': 19, 'noise': -0.3311432898044586, 'temp': 33.44283550977707, 'column': 'V'}","{'row': 19, 'noise': -0.052047550678253174, 'temp': 47.39762246608734, 'column': 'h'}","{'row': 19, 'noise': 0.026777304708957672, 'temp': 51.338865235447884, 'column': 'w'}","{'row': 19, 'noise': -0.37639328837394714, 'temp': 31.180335581302643, 'column': 'I'}","{'row': 19, 'noise': -0.023622846230864525, 'temp': 48.818857688456774, 'column': 'N'}","{'row': 19, 'noise': 0.06484074145555496, 'temp': 53.24203707277775, 'column': 'E'}","{'row': 19, 'noise': 0.4116729497909546, 'temp': 70.58364748954773, 'column': 'G'}","{'row': 19, 'noise': 0.3949122130870819, 'temp': 69.7456106543541, 'column': 'L'}","{'row': 19, 'noise': 0.300741046667099, 'temp': 65.03705233335495, 'column': 'A'}","{'row': 19, 'noise': -0.2934747040271759, 'temp': 35.326264798641205, 'column': 'J'}","{'row': 19, 'noise': 0.0761466845870018, 'temp': 53.80733422935009, 'column': 'k'}","{'row': 19, 'noise': 0.027506014332175255, 'temp': 51.37530071660876, 'column': 'y'}","{'row': 19, 'noise': 0.04582331329584122, 'temp': 52.29116566479206, 'column': 'R'}","{'row': 19, 'noise': 0.3277333080768585, 'temp': 66.38666540384293, 'column': 'K'}","{'row': 19, 'noise': 0.10140381008386612, 'temp': 55.070190504193306, 'column': 'g'}","{'row': 19, 'noise': 0.04721202701330185, 'temp': 52.36060135066509, 'column': 'j'}","{'row': 19, 'noise': 0.00782446563243866, 'temp': 50.39122328162193, 'column': 'z'}","{'row': 19, 'noise': 0.11291361600160599, 'temp': 55.6456808000803, 'column': 'D'}","{'row': 19, 'noise': -0.09772556275129318, 'temp': 45.11372186243534, 'column': 'c'}"
20,"{'row': 20, 'noise': 0.20316635072231293, 'temp': 60.158317536115646, 'column': 'x'}","{'row': 20, 'noise': 0.1748502105474472, 'temp': 58.74251052737236, 'column': 's'}","{'row': 20, 'noise': 0.15064917504787445, 'temp': 57.53245875239372, 'column': 't'}","{'row': 20, 'noise': 0.10353634506464005, 'temp': 55.176817253232, 'column': 'T'}","{'row': 20, 'noise': -0.37231457233428955, 'temp': 31.384271383285522, 'column': 'S'}","{'row': 20, 'noise': -0.3785439729690552, 'temp': 31.07280135154724, 'column': 'v'}","{'row': 20, 'noise': -0.23857080936431885, 'temp': 38.07145953178406, 'column': 'V'}","{'row': 20, 'noise': 0.4044208824634552, 'temp': 70.22104412317276, 'column': 'h'}","{'row': 20, 'noise': 0.06013457477092743, 'temp': 53.00672873854637, 'column': 'w'}","{'row': 20, 'noise': 0.32319027185440063, 'temp': 66.15951359272003, 'column': 'I'}","{'row': 20, 'noise': -0.0468919463455677, 'temp': 47.655402682721615, 'column': 'N'}","{'row': 20, 'noise': -0.21860559284687042, 'temp': 39.06972035765648, 'column': 'E'}","{'row': 20, 'noise': 0.3608097434043884, 'temp': 68.04048717021942, 'column': 'G'}","{'row': 20, 'noise': -0.023616673424839973, 'temp': 48.819166328758, 'column': 'L'}","{'row': 20, 'noise': 0.39812058210372925, 'temp': 69.90602910518646, 'column': 'A'}","{'row': 20, 'noise': 0.13109873235225677, 'temp': 56.55493661761284, 'column': 'J'}","{'row': 20, 'noise': 0.0909307450056076, 'temp': 54.54653725028038, 'column': 'k'}","{'row': 20, 'noise': 0.4322474002838135, 'temp': 71.61237001419067, 'column': 'y'}","{'row': 20, 'noise': -0.31110647320747375, 'temp': 34.44467633962631, 'column': 'R'}","{'row': 20, 'noise': -0.34349191188812256, 'temp': 32.82540440559387, 'column': 'K'}","{'row': 20, 'noise': -0.11232758313417435, 'temp': 44.38362084329128, 'column': 'g'}","{'row': 20, 'noise': 0.03484422713518143, 'temp': 51.74221135675907, 'column': 'j'}","{'row': 20, 'noise': 0.11856192350387573, 'temp': 55.92809617519379, 'column': 'z'}","{'row': 20, 'noise': -0.06431630253791809, 'temp': 46.784184873104095, 'column': 'D'}","{'row': 20, 'noise': -0.07783431559801102, 'temp': 46.10828422009945, 'column': 'c'}"
21,"{'row': 21, 'noise': -0.246267169713974, 'temp': 37.6866415143013, 'column': 'x'}","{'row': 21, 'noise': 0.08773276954889297, 'temp': 54.38663847744465, 'column': 's'}","{'row': 21, 'noise': 0.15118686854839325, 'temp': 57.55934342741966, 'column': 't'}","{'row': 21, 'noise': -0.10710044950246811, 'temp': 44.644977524876595, 'column': 'T'}","{'row': 21, 'noise': 0.28898316621780396, 'temp': 64.4491583108902, 'column': 'S'}","{'row': 21, 'noise': -0.11251111328601837, 'temp': 44.37444433569908, 'column': 'v'}","{'row': 21, 'noise': -0.2024460732936859, 'temp': 39.877696335315704, 'column': 'V'}","{'row': 21, 'noise': 0.28691551089286804, 'temp': 64.3457755446434, 'column': 'h'}","{'row': 21, 'noise': -0.6811317205429077, 'temp': 15.943413972854614, 'column': 'w'}","{'row': 21, 'noise': 0.11286148428916931, 'temp': 55.643074214458466, 'column': 'I'}","{'row': 21, 'noise': 0.06810469925403595, 'temp': 53.4052349627018, 'column': 'N'}","{'row': 21, 'noise': -0.25869452953338623, 'temp': 37.06527352333069, 'column': 'E'}","{'row': 21, 'noise': -0.15928836166858673, 'temp': 42.03558191657066, 'column': 'G'}","{'row': 21, 'noise': 0.043242089450359344, 'temp': 52.16210447251797, 'column': 'L'}","{'row': 21, 'noise': 0.2579774558544159, 'temp': 62.898872792720795, 'column': 'A'}","{'row': 21, 'noise': -0.0900653600692749, 'temp': 45.496731996536255, 'column': 'J'}","{'row': 21, 'noise': -0.1899506002664566, 'temp': 40.50246998667717, 'column': 'k'}","{'row': 21, 'noise': -0.41700950264930725, 'temp': 29.149524867534637, 'column': 'y'}","{'row': 21, 'noise': -0.18369056284427643, 'temp': 40.81547185778618, 'column': 'R'}","{'row': 21, 'noise': -0.11354762315750122, 'temp': 44.32261884212494, 'column': 'K'}","{'row': 21, 'noise': -0.03816096857190132, 'temp': 48.091951571404934, 'column': 'g'}","{'row': 21, 'noise': 0.620491623878479, 'temp': 81.02458119392395, 'column': 'j'}","{'row': 21, 'noise': -0.1061454713344574, 'temp': 44.69272643327713, 'column': 'z'}","{'row': 21, 'noise': 0.12295284122228622, 'temp': 56.14764206111431, 'column': 'D'}","{'row': 21, 'noise': -0.17259544134140015, 'temp': 41.37022793292999, 'column': 'c'}"
22,"{'row': 22, 'noise': -0.02590039372444153, 'temp': 48.704980313777924, 'column': 'x'}","{'row': 22, 'noise': -0.22360765933990479, 'temp': 38.81961703300476, 'column': 's'}","{'row': 22, 'noise': 0.33339449763298035, 'temp': 66.66972488164902, 'column': 't'}","{'row': 22, 'noise': -0.0704483762383461, 'temp': 46.477581188082695, 'column': 'T'}","{'row': 22, 'noise': 0.4412088096141815, 'temp': 72.06044048070908, 'column': 'S'}","{'row': 22, 'noise': 0.23725509643554688, 'temp': 61.862754821777344, 'column': 'v'}","{'row': 22, 'noise': 0.14566649496555328, 'temp': 57.283324748277664, 'column': 'V'}","{'row': 22, 'noise': -0.06874226033687592, 'temp': 46.562886983156204, 'column': 'h'}","{'row': 22, 'noise': -0.04601782187819481, 'temp': 47.69910890609026, 'column': 'w'}","{'row': 22, 'noise': -0.42805230617523193, 'temp': 28.597384691238403, 'column': 'I'}","{'row': 22, 'noise': 0.26988649368286133, 'temp': 63.494324684143066, 'column': 'N'}","{'row': 22, 'noise': 0.09938282519578934, 'temp': 54.96914125978947, 'column': 'E'}","{'row': 22, 'noise': -0.11479027569293976, 'temp': 44.26048621535301, 'column': 'G'}","{'row': 22, 'noise': -0.4201003313064575, 'temp': 28.994983434677124, 'column': 'L'}","{'row': 22, 'noise': 0.06597995012998581, 'temp': 53.29899750649929, 'column': 'A'}","{'row': 22, 'noise': -0.12356716394424438, 'temp': 43.82164180278778, 'column': 'J'}","{'row': 22, 'noise': 0.04801030829548836, 'temp': 52.40051541477442, 'column': 'k'}","{'row': 22, 'noise': 0.37156960368156433, 'temp': 68.57848018407822, 'column': 'y'}","{'row': 22, 'noise': -0.4229651987552643, 'temp': 28.851740062236786, 'column': 'R'}","{'row': 22, 'noise': 0.021906526759266853, 'temp': 51.09532633796334, 'column': 'K'}","{'row': 22, 'noise': 0.3927736282348633, 'temp': 69.63868141174316, 'column': 'g'}","{'row': 22, 'noise': -0.17813199758529663, 'temp': 41.09340012073517, 'column': 'j'}","{'row': 22, 'noise': -0.17344532907009125, 'temp': 41.32773354649544, 'column': 'z'}","{'row': 22, 'noise': -0.07810478657484055, 'temp': 46.09476067125797, 'column': 'D'}","{'row': 22, 'noise': 0.16449813544750214, 'temp': 58.22490677237511, 'column': 'c'}"
23,"{'row': 23, 'noise': -0.17284485697746277, 'temp': 41.35775715112686, 'column': 'x'}","{'row': 23, 'noise': -0.10608943551778793, 'temp': 44.6955282241106, 'column': 's'}","{'row': 23, 'noise': -0.2867531180381775, 'temp': 35.662344098091125, 'column': 't'}","{'row': 23, 'noise': 0.17337548732757568, 'temp': 58.668774366378784, 'column': 'T'}","{'row': 23, 'noise': 0.23748481273651123, 'temp': 61.87424063682556, 'column': 'S'}","{'row': 23, 'noise': 0.28813597559928894, 'temp': 64.40679877996445, 'column': 'v'}","{'row': 23, 'noise': -0.056936006993055344, 'temp': 47.15319965034723, 'column': 'V'}","{'row': 23, 'noise': 0.0683789774775505, 'temp': 53.418948873877525, 'column': 'h'}","{'row': 23, 'noise': 0.17650127410888672, 'temp': 58.825063705444336, 'column': 'w'}","{'row': 23, 'noise': 0.3276509940624237, 'temp': 66.38254970312119, 'column': 'I'}","{'row': 23, 'noise': -0.0006905248737893999, 'temp': 49.96547375631053, 'column': 'N'}","{'row': 23, 'noise': -0.2966172397136688, 'temp': 35.16913801431656, 'column': 'E'}","{'row': 23, 'noise': -0.6568173766136169, 'temp': 17.159131169319153, 'column': 'G'}","{'row': 23, 'noise': -0.09599826484918594, 'temp': 45.2000867575407, 'column': 'L'}","{'row': 23, 'noise': -0.029556941241025925, 'temp': 48.522152937948704, 'column': 'A'}","{'row': 23, 'noise': 0.23207390308380127, 'temp': 61.60369515419006, 'column': 'J'}","{'row': 23, 'noise': 0.05020323395729065, 'temp': 52.51016169786453, 'column': 'k'}","{'row': 23, 'noise': -0.03808955103158951, 'temp': 48.095522448420525, 'column': 'y'}","{'row': 23, 'noise': -0.008728154003620148, 'temp': 49.56359229981899, 'column': 'R'}","{'row': 23, 'noise': -0.1250460147857666, 'temp': 43.74769926071167, 'column': 'K'}","{'row': 23, 'noise': 0.6487330198287964, 'temp': 82.43665099143982, 'column': 'g'}","{'row': 23, 'noise': -0.024684613570570946, 'temp': 48.76576932147145, 'column': 'j'}","{'row': 23, 'noise': 0.22985734045505524, 'temp': 61.49286702275276, 'column': 'z'}","{'row': 23, 'noise': 0.4468758702278137, 'temp': 72.34379351139069, 'column': 'D'}","{'row': 23, 'noise': 0.3466448485851288, 'temp': 67.33224242925644, 'column': 'c'}"
24,"{'row': 24, 'noise': 0.0742310881614685, 'temp': 53.711554408073425, 'column': 'x'}","{'row': 24, 'noise': 0.18597514927387238, 'temp': 59.29875746369362, 'column': 's'}","{'row': 24, 'noise': 0.36080965399742126, 'temp': 68.04048269987106, 'column': 't'}","{'row': 24, 'noise': 0.05567038804292679, 'temp': 52.78351940214634, 'column': 'T'}","{'row': 24, 'noise': 0.4113527536392212, 'temp': 70.56763768196106, 'column': 'S'}","{'row': 24, 'noise': -0.29475724697113037, 'temp': 35.26213765144348, 'column': 'v'}","{'row': 24, 'noise': -0.0606660433113575, 'temp': 46.966697834432125, 'column': 'V'}","{'row': 24, 'noise': 0.0745544582605362, 'temp': 53.72772291302681, 'column': 'h'}","{'row': 24, 'noise': 0.18374060094356537, 'temp': 59.18703004717827, 'column': 'w'}","{'row': 24, 'noise': -0.0790180116891861, 'temp': 46.049099415540695, 'column': 'I'}","{'row': 24, 'noise': 0.15072952210903168, 'temp': 57.536476105451584, 'column': 'N'}","{'row': 24, 'noise': 0.06901395320892334, 'temp': 53.45069766044617, 'column': 'E'}","{'row': 24, 'noise': 0.033520445227622986, 'temp': 51.67602226138115, 'column': 'G'}","{'row': 24, 'noise': -0.2433602213859558, 'temp': 37.83198893070221, 'column': 'L'}","{'row': 24, 'noise': -0.22790664434432983, 'temp': 38.60466778278351, 'column': 'A'}","{'row': 24, 'noise': 0.510860800743103, 'temp': 75.54304003715515, 'column': 'J'}","{'row': 24, 'noise': -0.2833980619907379, 'temp': 35.830096900463104, 'column': 'k'}","{'row': 24, 'noise': 0.012750478461384773, 'temp': 50.63752392306924, 'column': 'y'}","{'row': 24, 'noise': 0.24690373241901398, 'temp': 62.3451866209507, 'column': 'R'}","{'row': 24, 'noise': 0.013475960120558739, 'temp': 50.67379800602794, 'column': 'K'}","{'row': 24, 'noise': 0.24002085626125336, 'temp': 62.00104281306267, 'column': 'g'}","{'row': 24, 'noise': 0.06688638031482697, 'temp': 53.34431901574135, 'column': 'j'}","{'row': 24, 'noise': 0.37425196170806885, 'temp': 68.71259808540344, 'column': 'z'}","{'row': 24, 'noise': 0.40214237570762634, 'temp': 70.10711878538132, 'column': 'D'}","{'row': 24, 'noise': 0.40526601672172546, 'temp': 70.26330083608627, 'column': 'c'}"
